{
    "name": "Rule Definition Example",
    "rules": [
        {
            "condition": {
                "type": "URL_MATCH",
                "value": "helloWorld"
            },
            "response": {
                "type": "TEXT",
                "value": "Hello World Again!"
            }
        },
        {
            "condition": {
                "type": "URL_MATCH",
                "value": "helloWorldJson"
            },
            "response": {
                "type": "JSON_FILE",
                "value": "example.helloWorld.json",
                "status": 201
            }
        },
        {
            "condition": {
                "type": "COMPOSITE_AND",
                "value": [
                    {
                        "type": "URL_PREFIX",
                        "value": "url"
                    }, 
                    {
                        "type": "JS_SCRIPT",
                        "value": {
                            "name": "example.lengthOfN.js",
                            "argument": 5
                        }
                    }
                ]
            },
            "response": {
                "type": "TEXT",
                "value": "URL prefixed with 'url' with length of 5"
            }
        },
        {
            "condition": {
                "type": "ANY_OF",
                "value": [
                    {
                        "type": "URL_PREFIX",
                        "value": "url/prefix"
                    }, 
                    {
                        "type": "URL_MATCH",
                        "value": "url/match"
                    }
                ]
            },
            "response": {
                "type": "TEXT",
                "value": "Prefix: url/prefix or Match: url/match Matches"
            }
        },
        {
            "condition": {
                "type": "ANY_OF",
                "value": {
                    "type": "URL_MATCH",
                    "values": [
                        "url/match1",
                        "url/match2",
                        "url/match3"
                    ]
                }
            },
            "response": {
                "type": "TEXT",
                "value": "Match url/match1 or url/match2 or url/match3"
            }
        },
        {
            "condition": {
                "type": "URL_MATCH",
                "value": "extraField"
            },
            "response": {
                "type": "SEQUENCE",
                "value": [
                    {
                        "type": "JS_OBJECT",
                        "value": {
                            "myStatus": "Initial Object"
                        }
                    },
                    {
                        "type": "JS_SCRIPT",
                        "value": {
                            "name": "example.addExtraField.js",
                            "argument": "extraInformation"
                        }
                    }
                ]
            }
        },
        {
            "condition": {
                "type": "URL_MATCH",
                "value": "redirectGoogle"
            },
            "response": {
                "type": "REDIRECT",
                "value": "https://www.google.com"
            }
        },
        {
            "condition": {
                "type": "ANY"
            },
            "response": {
                "type": "TEXT",
                "value": "Anything other than the above specified",
                "status": 404
            }
        }
    ]
}