{
    "count": 3,
    "total_count": 3,
    "current_page": 1,
    "pages": 1,
    "per_page": 15,
    "search_id": 0,
    "products": [
      {
        "id": 283077,
        "name": "HF-Acceptance Bread",
        "in_stock": true,
        "stock_prediction": true,
        "stock_prediction_updated_at": "2021-11-25T11:02:39.406Z",
        "slug": "hf-acceptance-bread",
        "max_order_quantity": 10,
        "display_unit": "KG",
        "natural_average_weight": 1,
        "display_average_weight": "~ 1 ",
        "taxon_ids": [
          20,
          19
        ],
        "categories": [
          "Bread",
          "Bakery"
        ],
        "product_type_name": "",
        "display_banner_text": [],
        "normal_price": "110000",
        "display_normal_price": "",
        "price": "110000",
        "display_price": "Rp110,000",
        "unit_price": "110000",
        "display_unit_price": "Rp110,000 / each",
        "variant_id": 280102,
        "variants": [
          {
            "id": 280102,
            "name": "HF-Acceptance Bread",
            "in_stock": true,
            "stock_prediction": true,
            "stock_prediction_updated_at": "2021-11-25T11:02:39.406Z",
            "slug": "hf-acceptance-bread",
            "sku": "90002",
            "is_master": true,
            "images": []
          }
        ],
        "brand": {
          "name": ""
        },
        "display_promo_price_percentage": "",
        "display_promotion_actions_combination_text": "Add for free delivery on your order",
        "promotion_actions": [
          {
            "type": "Spree::Promotion::Actions::FreeShipping",
            "display_long_text": "Add for free delivery on your order",
            "display_short_text": "Free Delivery",
            "products": [
              {
                "id": 283077,
                "display_banner_text": [
                  "Free Delivery"
                ],
                "variants": []
              }
            ]
          }
        ],
        "promotions": [
          {
            "id": 1966695,
            "rules": [],
            "actions": [
              {
                "type": "Spree::Promotion::Actions::FreeShipping",
                "display_long_text": "Add for free delivery on your order",
                "display_short_text": "Free Delivery",
                "products": [
                  {
                    "id": 283077,
                    "display_banner_text": [
                      "Free Delivery"
                    ],
                    "variants": []
                  }
                ]
              }
            ]
          }
        ],
        "pricing_engine": "aloha",
        "show_price": true
      },
      {
        "id": 283078,
        "name": "HF-Acceptance Bread OOS",
        "in_stock": true,
        "stock_prediction": true,
        "stock_prediction_updated_at": "2021-11-25T11:02:39.406Z",
        "slug": "hf-acceptance-bread-oos",
        "max_order_quantity": 10,
        "display_unit": "KG",
        "natural_average_weight": 1,
        "display_average_weight": "~ 1 ",
        "taxon_ids": [
          20,
          19
        ],
        "categories": [
          "Bread",
          "Bakery"
        ],
        "product_type_name": "bakery/bread/sliced_&_loaf/other",
        "display_banner_text": [],
        "normal_price": "210000",
        "display_normal_price": "",
        "price": "210000",
        "display_price": "Rp210,000",
        "unit_price": "210000",
        "display_unit_price": "Rp210,000 / each",
        "variant_id": 280103,
        "variants": [
          {
            "id": 280103,
            "name": "HF-Acceptance Bread OOS",
            "in_stock": true,
            "stock_prediction": true,
            "stock_prediction_updated_at": "2021-11-25T11:02:39.406Z",
            "slug": "hf-acceptance-bread-oos",
            "sku": "90003",
            "is_master": true,
            "images": []
          }
        ],
        "brand": {
          "name": ""
        },
        "display_promo_price_percentage": "",
        "display_promotion_actions_combination_text": "",
        "promotion_actions": [],
        "promotions": [],
        "pricing_engine": "aloha",
        "show_price": true
      },
      {
        "id": 283079,
        "name": "Bread Replacement",
        "in_stock": true,
        "stock_prediction": true,
        "stock_prediction_updated_at": "2021-11-25T11:02:39.406Z",
        "slug": "bread-replacement",
        "max_order_quantity": 10,
        "display_unit": "KG",
        "natural_average_weight": 1,
        "display_average_weight": "~ 1 ",
        "taxon_ids": [
          20,
          19
        ],
        "categories": [
          "Bread",
          "Bakery"
        ],
        "product_type_name": "",
        "display_banner_text": [],
        "normal_price": "17000",
        "display_normal_price": "",
        "price": "17000",
        "display_price": "Rp17,000",
        "unit_price": "17000",
        "display_unit_price": "Rp17,000 / each",
        "variant_id": 280104,
        "variants": [
          {
            "id": 280104,
            "name": "Bread Replacement",
            "in_stock": true,
            "stock_prediction": true,
            "stock_prediction_updated_at": "2021-11-25T11:02:39.406Z",
            "slug": "bread-replacement",
            "sku": "90004",
            "is_master": true,
            "images": []
          }
        ],
        "brand": {
          "name": ""
        },
        "display_promo_price_percentage": "",
        "display_promotion_actions_combination_text": "",
        "promotion_actions": [],
        "promotions": [],
        "pricing_engine": "aloha",
        "show_price": true
      }
    ],
    "filters": {
      "taxon_ids": [
        19,
        20
      ],
      "brands": [],
      "promotion_types": []
    },
    "meta": {
      "engine_version": "3.36.2"
    }
  }