{
    "count": 2,
    "total_count": 2,
    "current_page": 1,
    "pages": 1,
    "per_page": 15,
    "search_id": 16106280,
    "normalized_query": "milk",
    "products": [
      {
        "id": 283080,
        "name": "HF-Acceptance Milk",
        "in_stock": true,
        "stock_prediction": true,
        "stock_prediction_updated_at": "2021-11-25T10:58:20.850Z",
        "slug": "hf-acceptance-milk",
        "max_order_quantity": 10,
        "display_unit": "KG",
        "natural_average_weight": 1,
        "display_average_weight": "~ 1 ",
        "taxon_ids": [
          25,
          53
        ],
        "categories": [
          "Milk",
          "Beverages"
        ],
        "product_type_name": "",
        "display_banner_text": [],
        "normal_price": "285000",
        "display_normal_price": "",
        "price": "285000",
        "display_price": "Rp285,000",
        "unit_price": "285000",
        "display_unit_price": "Rp285,000 / each",
        "variant_id": 280105,
        "variants": [
          {
            "id": 280105,
            "name": "HF-Acceptance Milk",
            "in_stock": true,
            "stock_prediction": true,
            "stock_prediction_updated_at": "2021-11-25T10:58:20.850Z",
            "slug": "hf-acceptance-milk",
            "sku": "90005",
            "is_master": true,
            "images": []
          }
        ],
        "brand": {
          "name": ""
        },
        "display_promo_price_percentage": "",
        "display_promotion_actions_combination_text": "",
        "promotion_actions": [],
        "promotions": [],
        "pricing_engine": "aloha",
        "show_price": true
      },
      {
        "id": 283093,
        "name": "Class Mild",
        "in_stock": true,
        "stock_prediction": true,
        "stock_prediction_updated_at": "2021-11-25T10:58:20.871Z",
        "slug": "class-mild",
        "max_order_quantity": 10,
        "natural_average_weight": 1,
        "display_average_weight": "~ 1 ",
        "taxon_ids": [
          103
        ],
        "categories": [
          "Alcohol & Tobacco"
        ],
        "product_type_name": "",
        "display_banner_text": [],
        "normal_price": "16000",
        "display_normal_price": "",
        "price": "16000",
        "display_price": "Rp16,000",
        "unit_price": "16000",
        "display_unit_price": "Rp16,000 / each",
        "variant_id": 280118,
        "variants": [
          {
            "id": 280118,
            "name": "Class Mild",
            "in_stock": true,
            "stock_prediction": true,
            "stock_prediction_updated_at": "2021-11-25T10:58:20.871Z",
            "slug": "class-mild",
            "sku": "3405",
            "is_master": true,
            "images": []
          }
        ],
        "brand": {
          "name": ""
        },
        "display_promo_price_percentage": "",
        "display_promotion_actions_combination_text": "",
        "promotion_actions": [],
        "promotions": [],
        "pricing_engine": "aloha",
        "show_price": true
      }
    ],
    "filters": {
      "taxon_ids": [
        24,
        25,
        103
      ],
      "brands": [],
      "promotion_types": []
    },
    "meta": {
      "engine_version": "3.36.2"
    }
  }